{
  "version":  "0.0.1",
  "created": "2021.10.23 19:26:37",
  "modules": [
    {
      "name": "BepInEx",
      "path": "/",
      "url": "https://bitbucket.org/valheim-kingdoms-war/bepinex/raw/eccdf269bb8315bad0cbafeb0c5f0db93c339b30/client_data.json",
      "status": "active",
      "version": "0.0.1"
    },
    {
      "name": "HookGenPatcher",
      "path": "/BepInEx/",
      "url": "https://bitbucket.org/valheim-kingdoms-war/hookgenpatcher/downloads/ValheimModding-HookGenPatcher-0.0.3.zip",
      "status": "active",
      "version": "0.0.3",
      "dependencies": [
        "BepInEx"
      ],
      "config": []
    },
    {
      "name": "Jotunn",
      "path": "/BepInEx/plugins/",
      "url": "https://bitbucket.org/valheim-kingdoms-war/jotunn/downloads/Jotunn-1138-2-4-3-1638933119.zip",
      "status": "active",
      "version": "2.4.3",
      "dependencies": [
        "BepInEx",
        "HookGenPatcher"
      ],
      "config": []
    },
    {
      "name": "Equipment and Quick Slots",
      "path": "/BepInEx/plugins/",
      "url": "https://bitbucket.org/valheim-kingdoms-war/equipmentandquickslots/downloads/Equipment_and_Quick_Slots-92-2-0-14-1631985982.zip",
      "status": "active",
      "version": "2.0.14",
      "dependencies": [
        "BepInEx"
      ],
      "config":  []
    }
  ]

}